Nonlinear mixed-effects modelling with nlmixr2 - 7 Getting started with rxode2: simulating single subjects
…
Solving prediction-only models is done just the same way as for ODE systems, but is faster.

et   <- et(seq(0, 24, length.out=50))
cmt1 <- rxSolve(mod, et, params = c(ke=0.5))
cmt1

── Solved rxode2 object ──
── Parameters (x$params): ──
 ke 
0.5 
── Initial Conditions (x$inits): ──
named numeric(0)
── First part of data (object): ──
# A tibble: 50 × 2
   time  ipre
  <dbl> <dbl>
1 0     10   
2 0.490  7.83
3 0.980  6.13
4 1.47   4.80
5 1.96   3.75
6 2.45   2.94
# ℹ 44 more rows
…
We can treat this the same way as an ODE model:

et  <- et(amt=10, time=0, cmt=depot) %>%
    et(seq(0, 24, length.out=50))
cmt_solved <- rxSolve(mod_solved, et, params=c(ke=0.5))
cmt_solved

── Solved rxode2 object ──
── Parameters (x$params): ──
 ke   V 
0.5 1.0 
── Initial Conditions (x$inits): ──
named numeric(0)
── First part of data (object): ──
# A tibble: 50 × 2
   time  ipre
  <dbl> <dbl>
1 0     10   
2 0.490  7.83
3 0.980  6.13
4 1.47   4.80
5 1.96   3.75
6 2.45   2.94
# ℹ 44 more rows
…
Let’s solve the system and see what it looks like.

x <- mod2 %>%  solve(theta, ev)
print(x)

── Solved rxode2 object ──
── Parameters ($params): ──
     CL      V2       Q      V3      KA     Kin    Kout    EC50 
 18.600  40.200  10.500 297.000   0.294   1.000   1.000 200.000 
── Initial Conditions ($inits): ──
eff 
  1 
── First part of data (object): ──
# A tibble: 241 × 3
   time    C2   eff
  <dbl> <dbl> <dbl>
1     0 249.      1
2     1 121.      1
3     2  60.3     1
4     3  31.0     1
5     4  17.0     1
6     5  10.2     1
# ℹ 235 more rows
…
