Nonlinear mixed-effects modelling with nlmixr2 - 6 Events in rxode2 and nlmixr2
…
We’ll give 3 doses of 10000 mg, every 12 hours until 24 h, and 100 equally-spaced observations between 0 and 24 hours. We also specify time units of “hours”, which adds this to the output object specification.

ev <- et(timeUnits="hr") %>%               # using hours
    et(amt=10000, ii=12, until=24) %>%     # 10000 mg, 2 doses spaced by 12 hours
    et(seq(0, 24, length.out=100))         # 100 observations between 0 and 24 h, equally spaced

ev

── EventTable with 101 records ──
1 dosing records (see x$get.dosing(); add with add.dosing or et)
100 observation times (see x$get.sampling(); add with add.sampling or et)
multiple doses in `addl` columns, expand with x$expand(); or etExpand(x)
── First part of x: ──
# A tibble: 101 × 5
    time   amt    ii  addl evid         
   <dbl> <dbl> <dbl> <int> <evid>       
 1 0        NA    NA    NA 0:Observation
 2 0     10000    12     2 1:Dose (Add) 
 3 0.242    NA    NA    NA 0:Observation
 4 0.485    NA    NA    NA 0:Observation
 5 0.727    NA    NA    NA 0:Observation
 6 0.970    NA    NA    NA 0:Observation
 7 1.21     NA    NA    NA 0:Observation
 8 1.45     NA    NA    NA 0:Observation
 9 1.70     NA    NA    NA 0:Observation
10 1.94     NA    NA    NA 0:Observation
# ℹ 91 more rows
…
There are two ways to specify an infusion in rxode2. The first is to use the dur field. Here we specify an infusion given over 8 hours.

ev <- et(timeUnits="hr") %>%
    et(amt=10000, ii=12, until=24, dur=8) %>%
    et(seq(0, 24, length.out=100))

ev

── EventTable with 101 records ──
1 dosing records (see x$get.dosing(); add with add.dosing or et)
100 observation times (see x$get.sampling(); add with add.sampling or et)
multiple doses in `addl` columns, expand with x$expand(); or etExpand(x)
── First part of x: ──
# A tibble: 101 × 6
    time   amt    ii  addl evid          dur       
   <dbl> <dbl> <dbl> <int> <evid>        <rate/dur>
 1 0        NA    NA    NA 0:Observation NA        
 2 0     10000    12     2 1:Dose (Add)   8        
 3 0.242    NA    NA    NA 0:Observation NA        
 4 0.485    NA    NA    NA 0:Observation NA        
 5 0.727    NA    NA    NA 0:Observation NA        
 6 0.970    NA    NA    NA 0:Observation NA        
 7 1.21     NA    NA    NA 0:Observation NA        
 8 1.45     NA    NA    NA 0:Observation NA        
 9 1.70     NA    NA    NA 0:Observation NA        
10 1.94     NA    NA    NA 0:Observation NA        
# ℹ 91 more rows
…
We could, alternatively, specify rate instead.

ev <- et(timeUnits="hr") %>%
    et(amt=10000, ii=12, until=24, rate=10000/8) %>%
    et(seq(0, 24, length.out=100))

ev

── EventTable with 101 records ──
1 dosing records (see x$get.dosing(); add with add.dosing or et)
100 observation times (see x$get.sampling(); add with add.sampling or et)
multiple doses in `addl` columns, expand with x$expand(); or etExpand(x)
── First part of x: ──
# A tibble: 101 × 6
    time   amt rate          ii  addl evid         
   <dbl> <dbl> <rate/dur> <dbl> <int> <evid>       
 1 0        NA NA            NA    NA 0:Observation
 2 0     10000  1250         12     2 1:Dose (Add) 
 3 0.242    NA NA            NA    NA 0:Observation
 4 0.485    NA NA            NA    NA 0:Observation
 5 0.727    NA NA            NA    NA 0:Observation
 6 0.970    NA NA            NA    NA 0:Observation
 7 1.21     NA NA            NA    NA 0:Observation
 8 1.45     NA NA            NA    NA 0:Observation
 9 1.70     NA NA            NA    NA 0:Observation
10 1.94     NA NA            NA    NA 0:Observation
# ℹ 91 more rows
…
6.1.2.3.1 Dosing to staedy state

When the steady-state (ss) flag is set, doses are solved until steady state is reached with a constant inter-dose interval.

ev <- et(timeUnits="hr") %>%
    et(amt=10000, ii=6, ss=1) %>%
    et(seq(0, 24, length.out=100))

ev

── EventTable with 101 records ──
1 dosing records (see x$get.dosing(); add with add.dosing or et)
100 observation times (see x$get.sampling(); add with add.sampling or et)
── First part of x: ──
# A tibble: 101 × 5
    time   amt    ii evid             ss
   <dbl> <dbl> <dbl> <evid>        <int>
 1 0        NA    NA 0:Observation    NA
 2 0     10000     6 1:Dose (Add)      1
 3 0.242    NA    NA 0:Observation    NA
 4 0.485    NA    NA 0:Observation    NA
 5 0.727    NA    NA 0:Observation    NA
 6 0.970    NA    NA 0:Observation    NA
 7 1.21     NA    NA 0:Observation    NA
 8 1.45     NA    NA 0:Observation    NA
 9 1.70     NA    NA 0:Observation    NA
10 1.94     NA    NA 0:Observation    NA
# ℹ 91 more rows
…
Let’s see what happens in this system when we reset it at 6 hours post-dose.

ev <- et(timeUnits="hr") %>%
    et(amt=10000, ii=12, addl=3) %>%
    et(time=6, evid=reset) %>%
    et(seq(0, 24, length.out=100))

ev

── EventTable with 102 records ──
2 dosing records (see x$get.dosing(); add with add.dosing or et)
100 observation times (see x$get.sampling(); add with add.sampling or et)
multiple doses in `addl` columns, expand with x$expand(); or etExpand(x)
── First part of x: ──
# A tibble: 102 × 5
    time   amt    ii  addl evid         
   <dbl> <dbl> <dbl> <int> <evid>       
 1 0        NA    NA    NA 0:Observation
 2 0     10000    12     3 1:Dose (Add) 
 3 0.242    NA    NA    NA 0:Observation
 4 0.485    NA    NA    NA 0:Observation
 5 0.727    NA    NA    NA 0:Observation
 6 0.970    NA    NA    NA 0:Observation
 7 1.21     NA    NA    NA 0:Observation
 8 1.45     NA    NA    NA 0:Observation
 9 1.70     NA    NA    NA 0:Observation
10 1.94     NA    NA    NA 0:Observation
# ℹ 92 more rows
…
Now let’s do a reset-and-dose.

ev <- et(timeUnits="hr") %>%
    et(amt=10000, ii=12, addl=3) %>%
    et(time=6, amt=10000, evid=4) %>%
    et(seq(0, 24, length.out=100))

ev

── EventTable with 102 records ──
2 dosing records (see x$get.dosing(); add with add.dosing or et)
100 observation times (see x$get.sampling(); add with add.sampling or et)
multiple doses in `addl` columns, expand with x$expand(); or etExpand(x)
── First part of x: ──
# A tibble: 102 × 5
    time   amt    ii  addl evid         
   <dbl> <dbl> <dbl> <int> <evid>       
 1 0        NA    NA    NA 0:Observation
 2 0     10000    12     3 1:Dose (Add) 
 3 0.242    NA    NA    NA 0:Observation
 4 0.485    NA    NA    NA 0:Observation
 5 0.727    NA    NA    NA 0:Observation
 6 0.970    NA    NA    NA 0:Observation
 7 1.21     NA    NA    NA 0:Observation
 8 1.45     NA    NA    NA 0:Observation
 9 1.70     NA    NA    NA 0:Observation
10 1.94     NA    NA    NA 0:Observation
# ℹ 92 more rows
…
You may also turn off a compartment, which gives the following kind of result (in this example, we’re turning off the depot compartment at 6 hours post-dose). This can be useful when one needs to model things like gastric emptying.

ev <- et(timeUnits="hr") %>%
    et(amt=10000, ii=12, addl=3) %>%
    et(time=6, cmt="-depot", evid=2) %>%
    et(seq(0, 24, length.out=100))

ev

── EventTable with 102 records ──
2 dosing records (see x$get.dosing(); add with add.dosing or et)
100 observation times (see x$get.sampling(); add with add.sampling or et)
multiple doses in `addl` columns, expand with x$expand(); or etExpand(x)
── First part of x: ──
# A tibble: 102 × 6
    time cmt         amt    ii  addl evid         
   <dbl> <chr>     <dbl> <dbl> <int> <evid>       
 1 0     (obs)        NA    NA    NA 0:Observation
 2 0     (default) 10000    12     3 1:Dose (Add) 
 3 0.242 (obs)        NA    NA    NA 0:Observation
 4 0.485 (obs)        NA    NA    NA 0:Observation
 5 0.727 (obs)        NA    NA    NA 0:Observation
 6 0.970 (obs)        NA    NA    NA 0:Observation
 7 1.21  (obs)        NA    NA    NA 0:Observation
 8 1.45  (obs)        NA    NA    NA 0:Observation
 9 1.70  (obs)        NA    NA    NA 0:Observation
10 1.94  (obs)        NA    NA    NA 0:Observation
# ℹ 92 more rows
…
