Nonlinear mixed-effects modelling with nlmixr2 - 8 Simulating populations
…
sim  <- rxSolve(mod2, ev, nSub=100)

using C compiler: ‘Apple clang version 15.0.0 (clang-1500.0.40.1)’
using SDK: ‘’
ld: warning: -single_module is obsolete
ld: warning: -multiply_defined is obsolete

The results here are presented by compartment number, so we’ll need to do a bit of filtering to generate our summary plots with residual error. The values of C2 and eff with residual error are found in sim.

sim

── Solved rxode2 object ──
── Parameters (x$params): ──
# A tibble: 100 × 12
   sim.id    KA   TCl    V2     Q    V3   Kin  Kout  EC50 eff.sd prop.sd  eta.Cl
    <int> <dbl> <dbl> <dbl> <dbl> <dbl> <dbl> <dbl> <dbl>  <dbl>   <dbl>   <dbl>
 1      1 0.294  18.6  40.2  10.5   297     1     1   200  0.316   0.316 -0.265 
 2      2 0.294  18.6  40.2  10.5   297     1     1   200  0.316   0.316 -0.198 
 3      3 0.294  18.6  40.2  10.5   297     1     1   200  0.316   0.316 -0.228 
 4      4 0.294  18.6  40.2  10.5   297     1     1   200  0.316   0.316  0.311 
 5      5 0.294  18.6  40.2  10.5   297     1     1   200  0.316   0.316 -0.597 
 6      6 0.294  18.6  40.2  10.5   297     1     1   200  0.316   0.316 -0.0645
 7      7 0.294  18.6  40.2  10.5   297     1     1   200  0.316   0.316  0.149 
 8      8 0.294  18.6  40.2  10.5   297     1     1   200  0.316   0.316  0.138 
 9      9 0.294  18.6  40.2  10.5   297     1     1   200  0.316   0.316 -0.923 
10     10 0.294  18.6  40.2  10.5   297     1     1   200  0.316   0.316 -0.135 
# ℹ 90 more rows
── Initial Conditions (x$inits): ──
depot centr  peri   eff 
    0     0     0     1 

Simulation without uncertainty in parameters, omega, or sigma matricies

── First part of data (object): ──
# A tibble: 20,000 × 12
  sim.id  time    C2    C3    CL ipredSim     sim depot  centr  peri   eff   CMT
   <int> <dbl> <dbl> <dbl> <dbl>    <dbl>   <dbl> <dbl>  <dbl> <dbl> <dbl> <dbl>
1      1 0      249.  0     14.3     1      0.538     0 10000     0   1        4
2      1 0      249.  0     14.3   249.   138.        0 10000     0   1        5
3      1 0.485  185.  3.65  14.3     1.22   1.69      0  7426. 1085.  1.22     4
4      1 0.485  185.  3.65  14.3   185.   174.        0  7426. 1085.  1.22     5
5      1 0.970  138.  6.31  14.3     1.36   1.13      0  5530. 1874.  1.36     4
6      1 0.970  138.  6.31  14.3   138.   209.        0  5530. 1874.  1.36     5
# ℹ 19,994 more rows
…
ℹ thetaMat has too many items, ignored: 'tlag'

print(sim)

── Solved rxode2 object ──
── Parameters ($params): ──
# A tibble: 10,000 × 9
   sim.id id      tcl crcl.cl  eta.cl    tv   eta.v   tka eta.ka
    <int> <fct> <dbl>   <dbl>   <dbl> <dbl>   <dbl> <dbl>  <dbl>
 1      1 1      26.5   0.162 -0.449   1.40  0.0562  4.64  1.09 
 2      1 2      26.5   0.162 -0.586   1.40  0.557   4.64  0.754
 3      1 3      26.5   0.162 -1.13    1.40 -0.511   4.64  0.382
 4      1 4      26.5   0.162  0.393   1.40  0.275   4.64 -0.240
 5      1 5      26.5   0.162  2.61    1.40  1.01    4.64  1.30 
 6      1 6      26.5   0.162 -0.0363  1.40  0.932   4.64  0.466
 7      1 7      26.5   0.162  0.487   1.40  0.976   4.64 -1.12 
 8      1 8      26.5   0.162 -0.544   1.40  0.0459  4.64 -0.642
 9      1 9      26.5   0.162 -0.540   1.40 -0.209   4.64  0.861
10      1 10     26.5   0.162  2.47    1.40 -1.78    4.64 -0.496
# ℹ 9,990 more rows
── Initial Conditions ($inits): ──
named numeric(0)

Simulation with uncertainty in:
• parameters ($thetaMat for changes)
• omega matrix ($omegaList)
• sigma matrix ($sigmaList)

── First part of data (object): ──
# A tibble: 50,000 × 10
  sim.id    id  time    cl     v    ka ipred     obs    WT  CLCR
   <int> <int> <dbl> <dbl> <dbl> <dbl> <dbl>   <dbl> <dbl> <dbl>
1      1     1 0.118  10.1  118. 13.8  0.678 -0.371   79.7  62.5
2      1     1 0.579  10.1  118. 13.8  0.813  1.65    79.7  62.5
3      1     1 2.78   10.1  118. 13.8  0.673  3.16    79.7  62.5
4      1     1 5.09   10.1  118. 13.8  0.553  0.987   79.7  62.5
5      1     1 8.88   10.1  118. 13.8  0.399 -0.0103  79.7  62.5
6      1     2 0.232  21.8  179.  9.86 0.493  0.227   73.5  68.0
# ℹ 49,994 more rows
…
